<?xml version="1.0" encoding="utf-8"?>
<!-- Generator: Adobe Illustrator 22.0.0, SVG Export Plug-In . SVG Version: 6.00 Build 0)  -->
<svg version="1.1" id="Layer_1" xmlns="http://www.w3.org/2000/svg" xmlns:xlink="http://www.w3.org/1999/xlink" x="0px" y="0px"
	 viewBox="0 0 178 240" style="enable-background:new 0 0 178 240;" xml:space="preserve">
<style type="text/css">
	.st0{fill:#DBDBDC;}
	.st1{fill:#DB4E3F;}
</style>
<ellipse class="st0" cx="90.1" cy="215.6" rx="49.9" ry="10.3"/>
<path class="st1" d="M7.9,91.9C8.6,70,17,51.5,32.4,36.3c13.3-13.1,29.4-20.8,48-22.8c38.7-4.2,74.4,20.3,85.1,57.7
	c5.2,18.3,3.2,36-3.3,53.4c-6.4,17.2-16.2,32.4-27.6,46.7c-12.3,15.4-26.2,29.3-41,42.3c-2.8,2.5-7.3,2.6-9.9,0.3
	C63.5,196.4,45,177.2,30,154.9c-8.6-12.8-15.4-26.5-19.3-41.5C8.9,106.4,8,99.2,7.9,91.9z M88.5,126.1c17.9-0.1,32-14.3,32-32.1
	c-0.1-17.2-14.5-31.1-32.1-31C71.3,63,57.2,77.3,57.3,94.4C57.4,111.9,71.5,126.2,88.5,126.1z"/>
</svg>
